year,country,text
1985,"Alemania, Francia, Bélgica, Luxemburgo y Países Bajos",Firman el acuerdo Schengen pero no será hasta 1995 que entre en vigor.
1990,Italia,Firman el acuerdo Schengen que entrará en vigor en el año 1997.
1991,Portugal y España ,Firman el Acuerdo Schengen pero no será hasta 1995 que entrará en vigor.
1992,Grecia,Firma el Acuerdo Schengen que entrará en vigor en el año 2000.
1995,Austria ,Firma el Acuerdo Schengen que entrará en vigor en el año 1997.
1996,"Firman el Acuerdo Schengen Dinamarca, Finlandia y Suecia, pero no será hasta el 2001 que entrará en vigor",
1999,"Después de la incorporación en la ley de la UE con el Tratado de Amsterdam firman por segunda vez el Acuerdo Schengen Islandia y Noruega, que reemplazará al primero firmado en 1996  y entrará en vigor hasta el 2001",
2003,"Firman el Acuerdo Schengen la República Checa, Estonia, Hungría, Letonia, Lituania, Malta, Polonia, Eslo vaquia y Eslovenia, que entrará en vigor desde el 2007 ",
2004,"Firma el Acuerdo Schengen Suiza, país que no hace parte de la UE. No será hasta 2008 que entrará en vigor",
2008,"Firma el Acuerdo Schengen Liechtenstein, que entrará en vigor desde 2011",
