name,type,frontex,startDate,endDate,frontierCountries,latitude,longitude,,description,frontierSize,construction,geoInfo,1,2,3,4,5,6,7,8,9,10,11,12,13,14,15
GRECIA/TURQUIA,terrestre,no aplica,2012,2012,,41,26,,Construido por Grecia para separar estado Turco y Griego,206km/12km largo x 4m alto,Inmigración,Nacional,no,si,no,si,no,si,no,no,si,no,no,si,no,si,no
BULGARIA/TURQUÍA,terrestre,no aplica,2013,2014,,42,27,,Construido por Bulgaria para la separación entre los Estados búlgaro y turco ,260 Km de frontera; 201 km largo x 3m alto de muro,Inmigración,Nacional,,si,no,si,si,si,no,no,no,si,no,no,si,no,no
HUNGRÍA/CROACIA,terrestre,no aplica,2015,2015,,45,17,,Construido por Hungría separación entre Estados de Hungría y Croacia,329 Km de frontera; 300km largo de muro,Inmigración,"Nacional, entrada espacio Schengen",no,no,si,si,si,si,no,no,no,si,no,no,no,no,no
HUNGRÍA/SERBIA,terrestre,no aplica,2015,2015,,46,19,,Construido por Hungría separación entre los Estados Húngaro y Serbio,151 Km de frontera; 151km largo x 4m alto x 15m bajo tierra de muro,Inmigración,"Nacional, fronteras exteriores con la UE, entrada espacio Schengen",no,si,si,si,si,si,no,no,no,si,no,no,no,no,no
MACEDONIA/GRECIA,terrestre,no aplica,2015,2015,,41,21,,Construido por Macedonia para la delimitación entre el Estado A.R.Y Macedonia con Grecia,246 Km de frontera; 33km largo x 2.5m alto de muro,Inmigración,Nacional,no,si,no,si,no,si,no,no,no,no,no,no,no,no,no
AUSTRIA/ESLOVENIA,terrestre,no aplica,2015,2016,,46,14,,Construido por Austria para la separación entre los Estados Austria y Eslovenia,"330 Km de frontera; 3,7km largo x 2m alto de muro",Inmigración,Nacional,no,no,no,si,no,n,no,no,no,no,no,no,no,no,no
ESLOVENIA/CROACIA,terrestre,no aplica,2015,2015,,45,14,,Construido por Eslovenia para la separación entre los Estados de Eslovenia y Croacia,670 Km de frontera; 200km largo de muro,Inmigración,"Nacional, entrada espacio Schengen",no,no,no,si,si,si,no,no,no,no,no,no,no,no,no
ESPAÑA/MARRUECOS CEUTA,terrestre,no aplica,1993,2005,,35,5,,Construido por España para la separación entre los Estados de España y de Marruecos,"6,3Km de frontera; 8,3km largo x 6 m alto de muro","Inmigración, contrabando","Nacional, Unión Europea-África, entrada en la UE, entrada en Schengen",no,si,no,no,no,no,no,no,si,si,no,si,si,no,no
ESPAÑA/MARRUECOS MELILLA,terrestre,no aplica,1997,2007,,35,2,,Construido por España para la separación entre los Estados de España y de Marruecos,"9,6 Km de frontera; 10km largo x 6m alto de muro","Inmigración, contrabando","Nacional, Unión Europea-África, entrada en la UE, entrada en Schengen",no,si,no,si,no,no,no,no,si,no,no,si,si,no,si
REINO UNIDO/FRANCIA,terrestre,no aplica,2015,2015,,50,1,,Construido por Reino Unido para la separación entre el Puerto de Calais (Coquelles) del resto del puerto,1km de muro por cada lado de la carretera x 4m alto,Inmigración,Cortar acceso al canal de la mancha,si,no,no,si,no,si,si,si,no,no,si,no,no,no,no
NORUEGA/RUSIA,terrestre,no aplica,2016,2016,,69,29,,Construido por Noruega para la separación entre los Estados de Noruega y Rusia,196 Km de frontera; 200m largo x 4 m alto de muro,"Seguridad, inmigración","UE-Rusia, OTAN-Rusia, fronteras exteriores de la UE, entrada en zona Schengen",no,si,no,no,no,no,no,no,si,no,no,no,no,no,no
LETONIA/RUSIA,terrestre,no aplica,2015,2017,,56,27,,Construido por Letonia para la separación entre los Estados de Letonia y Rusia,276 Km de frontera; 23km largo (90 km previsto 2019)  x 2m de muro,"Seguridad, tensión territorial,inmigración, contrabando","UE-Rusia, OTAN-Rusia, fronteras exteriores de la UE, entrada en zona Schengen ",no,si,no,no,no,si,no,no,si,no,no,no,no,no,no
ESTONIA/RUSIA,terrestre,no aplica,2016,2018,,59,27,,Construido por Estonia para la separación entre los Estados de Estonia y Rusia,"294 Km de frontera; 1,6km largo x 2,5m alto de muro","Seguridad, tensión territorial,inmigración, contrabando","UE-Rusia, OTAN-Rusia, fronteras exteriores de la UE, entrada en zona Schengen ",no,no,no,si,no,no,no,no,no,no,no,si,no,si,no
LITUANIA/RUSIA,terrestre,no aplica,2017,2017,,55,22,,Construido por Lituania para la separación entre los Estados de Lituania y Rusia,"227 Km de frontera; 1,6km largo x 2,5m alto de muro","Seguridad, tensión territorial,inmigración","UE-Rusia, OTAN-Rusia, fronteras exteriores de la UE, entrada en zona Schengen ",no,nsi,no,no,no,no,no,no,si,no,no,no,no,no,no
