[
    {
      "year": 1985,
      "country": "Alemanya, França, Bèlgica, Luxemburg i Països Baixos",
      "text": "Firmen l'Acord Schengen però no serà fins al 1995 que aquest entrarà en vigor",
      "internalDate": 1986
    },
    {
      "year": 1990,
      "country": "Itàlia",
      "text": "Firma l'Acord Schengen que entrarà en vigor l'any 1997",
      "internalDate": 1991
    },
    {
      "year": 1991,
      "country": "Portugal i Espanya ",
      "text": "Firmen l'Acord Schengen però no serà fins al 1995 que entrarà en vigor",
      "internalDate": 1993
    },
    {
      "year": 1992,
      "country": "Grècia",
      "text": "Firma l'Acord Schengen que entrarà en vigor l'any 2000",
      "internalDate": 1995
    },
    {
      "year": 1995,
      "country": "Àustria ",
      "text": "Firma l'Acord Schengen que entrarà en vigor  l'any 1997",
      "internalDate": 1997
    },
    {
      "year": 1996,
      "country": "Dinamarca, Finlàndia i Suècia",
      "text": "Firmen l'Acord Schengen però no serà fins al 2001 que entrarà en vigor",
      "internalDate": 1999
    },
    {
      "year": 1999,
      "country": "Islàndia i Noruega",
      "text": "Després de la incorporació a la llei de la UE amb el Tractat d'Amsterdam, firmen per segona vegada l'Acord Schengen, que reemplaçarà al primer firmat el 1996 i entrarà en vigor l'any 2001",
      "internalDate": 2001
    },
    {
      "year": 2003,
      "country": "República Txeca, Estònia, Hongria, Letònia, Lituània, Malta, Polònia, Eslovàquia i Eslovènia",
      "text": "Firmen l'acord que entrarà en vigor l'any 2007",
      "internalDate": 2004
    },
    {
      "year": 2004,
      "country": "Suïssa (no membre de la UE)",
      "text": "Firma l'Acord Schengen però no serà fins al 2008 que entrarà en vigor",
      "internalDate": 2007
    },
    {
      "year": 2008,
      "country": "Liechtenstein",
      "text": "Firma l'Acord Schengen que entrarà en vigor l'any 2011",
      "internalDate": 2010
    }
   ]