[
    {
      "year": 1985,
      "country": "Germany, France, Belgium, Luxemburg and the Netherlands",
      "text": "Sign the Schengen Agreement but it doesn't come into effect until 1995",
      "internalDate": 1986
    },
    {
      "year": 1990,
      "country": "Italy",
      "text": "Signs the Schengen Agreement which comes into effect in 1997",
      "internalDate": 1991
    },
    {
      "year": 1991,
      "country": "Portugal and Spain ",
      "text": "Sign the Schengen Agreement but it doesn't enter into force before 1995",
      "internalDate": 1993
    },
    {
      "year": 1992,
      "country": "Greece",
      "text": "Signs the Schengen Agreement but it does not take effect until 2000",
      "internalDate": 1995
    },
    {
      "year": 1995,
      "country": "Austria ",
      "text": "Signs the Schengen Agreement which comes into force in 1997",
      "internalDate": 1997
    },
    {
      "year": 1996,
      "country": "Denmark, Finland and Sweden",
      "text": "Sign the Schengen Agreement but it doesn't take effect until 2001",
      "internalDate": 1999
    },
    {
      "year": 1999,
      "country": "Iceland and Norway",
      "text": "After the UE law is incorporated into the Treaty of Amsterdam, these countries sign the Schengen Agreement again, which will replace the first one signed in 1996 and that will take effect in 2001",
      "internalDate": 2001
    },
    {
      "year": 2003,
      "country": "Czech Republic, Estonia, Hungary, Latvia, Lithuania, Malta, Poland, Slovakia and Slovenia",
      "text": "Sign the Schengen Agreement. It will come into force in 2007",
      "internalDate": 2004
    },
    {
      "year": 2004,
      "country": "Switzerland (non EU Member)",
      "text": "Signs the Schengen Agreement but it doesn't take effect before 2008",
      "internalDate": 2007
    },
    {
      "year": 2008,
      "country": "Liechtenstein",
      "text": "Sign the Schengen Agreement which will come into force in 2001",
      "internalDate": 2010
    }
   ]