{
  "type": "FeatureCollection",
  "features": [
    {
      "type": "Feature",
      "properties": {
        "startDate": 1451606400000
      },
      "geometry": {
        "type": "LineString",
        "coordinates": [
          [
            29.0478515625,
            69.02141408835533
          ],
          [
            29.179687499999996,
            69.09993967425089
          ],
          [
            29.311523437499996,
            69.2249968541159
          ],
          [
            29.311523437499996,
            69.31055846850984
          ],
          [
            29.619140624999996,
            69.33383491964828
          ],
          [
            30.102539062499996,
            69.4421276134176
          ],
          [
            30.146484374999996,
            69.50376519563686
          ],
          [
            30.146484374999996,
            69.65708627301174
          ],
          [
            30.47607421875,
            69.59589006237648
          ],
          [
            30.761718749999996,
            69.53451763078358
          ],
          [
            30.9814453125,
            69.58822815446507
          ],
          [
            30.827636718749996,
            69.79413569863112
          ]
        ]
      }
    },
    {
      "type": "Feature",
      "properties": {
        "startDate": 1325376000000
      },
      "geometry": {
        "type": "LineString",
        "coordinates": [
          [
            26.092529296875,
            40.73893324113601
          ],
          [
            26.268310546875,
            40.9218144123785
          ],
          [
            26.3671875,
            40.94671366508002
          ],
          [
            26.312255859375,
            41.071069130806414
          ],
          [
            26.312255859375,
            41.261291493919884
          ],
          [
            26.43310546875,
            41.253032440653186
          ],
          [
            26.510009765625,
            41.343824581185686
          ],
          [
            26.60888671875,
            41.343824581185686
          ],
          [
            26.60064697265625,
            41.47617465855341
          ]
        ]
      }
    },
    {
      "type": "Feature",
      "properties": {
        "startDate": 1356998400000
      },
      "geometry": {
        "type": "LineString",
        "coordinates": [
          [
            26.369934082031246,
            41.81994337977476
          ],
          [
            26.429672241210938,
            41.82301361663085
          ],
          [
            26.40838623046875,
            41.82045509614034
          ],
          [
            26.4825439453125,
            41.82761869589464
          ],
          [
            26.54022216796875,
            41.82045509614034
          ],
          [
            26.597900390625,
            41.88592102814744
          ],
          [
            26.531982421874996,
            41.934976500546604
          ],
          [
            26.60888671875,
            41.96765920367816
          ],
          [
            26.82861328125,
            41.9921602333763
          ],
          [
            26.96044921875,
            42.02481360781777
          ],
          [
            27.00439453125,
            42.08191667830631
          ],
          [
            27.169189453124996,
            42.09007006868398
          ],
          [
            27.279052734375,
            42.09007006868398
          ],
          [
            27.542724609375,
            41.934976500546604
          ],
          [
            27.762451171875,
            41.96765920367816
          ],
          [
            27.850341796875,
            41.94314874732696
          ],
          [
            27.861328125,
            42.00032514831621
          ],
          [
            28.048095703124996,
            41.983994270935625
          ]
        ]
      }
    },
    {
      "type": "Feature",
      "properties": {
        "startDate": 1420070400000
      },
      "geometry": {
        "type": "LineString",
        "coordinates": [
          [
            16.864013671875,
            46.32796494040746
          ],
          [
            16.87774658203125,
            46.319429593412906
          ],
          [
            16.918945312499996,
            46.27863122156088
          ],
          [
            17.171630859375,
            46.14178273759234
          ],
          [
            17.33642578125,
            45.9511496866914
          ],
          [
            17.42431640625,
            45.94351068030587
          ],
          [
            17.578125,
            45.92822950933618
          ],
          [
            17.666015625,
            45.85941212790755
          ],
          [
            17.77587890625,
            45.805828539928356
          ],
          [
            17.874755859375,
            45.75219336063106
          ],
          [
            18.017578125,
            45.79050946752472
          ],
          [
            18.160400390625,
            45.767522962149876
          ],
          [
            18.39111328125,
            45.75985868785574
          ],
          [
            18.49822998046875,
            45.784763729573555
          ],
          [
            18.54217529296875,
            45.79242458189578
          ],
          [
            18.560028076171875,
            45.79721207992186
          ]
        ]
      }
    },
    {
      "type": "Feature",
      "properties": {
        "startDate": 1420070400000
      },
      "geometry": {
        "type": "LineString",
        "coordinates": [
          [
            19.094238281249996,
            45.98169518512228
          ],
          [
            19.094238281249996,
            45.98169518512228
          ],
          [
            19.1162109375,
            46.042735653846506
          ],
          [
            19.193115234375,
            45.98932892799953
          ],
          [
            19.2919921875,
            45.99696161820381
          ],
          [
            19.5556640625,
            46.14178273759234
          ],
          [
            19.654541015625,
            46.18743678432541
          ],
          [
            19.79736328125,
            46.13417004624326
          ],
          [
            19.984130859375,
            46.17983040759436
          ],
          [
            20.19287109375,
            46.164614496897094
          ]
        ]
      }
    },
    {
      "type": "Feature",
      "properties": {
        "startDate": 1420070400000
      },
      "geometry": {
        "type": "LineString",
        "coordinates": [
          [
            21.060791015624996,
            40.863679665481676
          ],
          [
            21.26953125,
            40.88029480552824
          ],
          [
            21.434326171875,
            40.90520969727358
          ],
          [
            21.588134765625,
            40.88029480552824
          ],
          [
            21.719970703125,
            40.93841495689795
          ],
          [
            21.895751953125,
            41.054501963290505
          ],
          [
            22.03857421875,
            41.1290213474951
          ],
          [
            22.203369140625,
            41.178653972331674
          ],
          [
            22.489013671875,
            41.12074559016745
          ],
          [
            22.708740234375,
            41.178653972331674
          ],
          [
            22.774658203125,
            41.32732632036622
          ]
        ]
      }
    },
    {
      "type": "Feature",
      "properties": {
        "startDate": 1420070400000
      },
      "geometry": {
        "type": "LineString",
        "coordinates": [
          [
            16.0894775390625,
            46.86019101567027
          ],
          [
            15.99609375,
            46.76244305208004
          ],
          [
            16.083984375,
            46.6795944656402
          ],
          [
            15.84228515625,
            46.73986059969267
          ],
          [
            15.644531250000002,
            46.6795944656402
          ],
          [
            15.49072265625,
            46.61171462536894
          ],
          [
            15.281982421875002,
            46.649436163350245
          ],
          [
            15.051269531249998,
            46.63435070293566
          ],
          [
            14.886474609375,
            46.59661864884465
          ],
          [
            14.842529296875,
            46.5286346952717
          ],
          [
            14.578857421875,
            46.39998810407942
          ],
          [
            14.403076171875,
            46.437856895024204
          ],
          [
            14.1064453125,
            46.4605655457854
          ],
          [
            13.82080078125,
            46.51351558059737
          ]
        ]
      }
    },
    {
      "type": "Feature",
      "properties": {
        "startDate": 1420070400000
      },
      "geometry": {
        "type": "LineString",
        "coordinates": [
          [
            13.546142578125,
            45.49094569262732
          ],
          [
            13.677978515625,
            45.43700828867391
          ],
          [
            13.77685546875,
            45.460130637921004
          ],
          [
            13.86474609375,
            45.43700828867391
          ],
          [
            14.007568359374998,
            45.4524242413431
          ],
          [
            14.007568359374998,
            45.51404592560424
          ],
          [
            14.1943359375,
            45.49094569262732
          ],
          [
            14.436035156250002,
            45.4986468234261
          ],
          [
            14.578857421875,
            45.65244828675087
          ],
          [
            14.644775390625,
            45.598665689820635
          ],
          [
            14.765625,
            45.521743896993634
          ],
          [
            14.842529296875,
            45.460130637921004
          ],
          [
            14.94140625,
            45.506346901083425
          ],
          [
            15.084228515625,
            45.46783598133375
          ],
          [
            15.18310546875,
            45.42158812329091
          ],
          [
            15.281982421875002,
            45.460130637921004
          ],
          [
            15.380859374999998,
            45.48324350868221
          ],
          [
            15.27099609375,
            45.598665689820635
          ],
          [
            15.391845703125,
            45.644768217751924
          ],
          [
            15.347900390624998,
            45.706179285330855
          ],
          [
            15.260009765624998,
            45.729191061299915
          ],
          [
            15.49072265625,
            45.82114340079471
          ],
          [
            15.6884765625,
            45.85176048817254
          ],
          [
            15.721435546875,
            46.03510927947334
          ],
          [
            15.6005859375,
            46.11132565729796
          ],
          [
            15.644531250000002,
            46.23305294479828
          ],
          [
            15.776367187499998,
            46.22545288226939
          ],
          [
            16.083984375,
            46.33175800051563
          ],
          [
            16.094970703125,
            46.40756396630067
          ],
          [
            16.3037109375,
            46.38483322349276
          ],
          [
            16.270751953125,
            46.437856895024204
          ],
          [
            16.22955322265625,
            46.492719928122746
          ],
          [
            16.24053955078125,
            46.50217348354072
          ]
        ]
      }
    },
    {
      "type": "Feature",
      "properties": {
        "startDate": 725846400000
      },
      "geometry": {
        "type": "LineString",
        "coordinates": [
          [
            -5.382442474365234,
            35.912410744500775
          ],
          [
            -5.379352569580078,
            35.91060332011624
          ],
          [
            -5.379180908203125,
            35.90893489172885
          ],
          [
            -5.377464294433594,
            35.9081006643422
          ],
          [
            -5.378665924072266,
            35.906293141498736
          ],
          [
            -5.376605987548828,
            35.90587601497918
          ],
          [
            -5.376605987548828,
            35.90337320968846
          ],
          [
            -5.377464294433594,
            35.902260826374324
          ],
          [
            -5.376605987548828,
            35.899201691643725
          ],
          [
            -5.3771209716796875,
            35.89767207994017
          ],
          [
            -5.3778076171875,
            35.89544713742474
          ],
          [
            -5.3757476806640625,
            35.89419557977863
          ],
          [
            -5.374546051025391,
            35.89238773935897
          ],
          [
            -5.375404357910156,
            35.88877193467697
          ],
          [
            -5.373344421386718,
            35.885990434101366
          ],
          [
            -5.371799468994141,
            35.88181800005188
          ],
          [
            -5.369911193847656,
            35.880705313847436
          ],
          [
            -5.367164611816406,
            35.879314434110825
          ],
          [
            -5.363559722900391,
            35.878758075377704
          ],
          [
            -5.359783172607422,
            35.87792352995116
          ],
          [
            -5.359439849853516,
            35.87514164836417
          ],
          [
            -5.355834960937499,
            35.87361157185178
          ],
          [
            -5.3510284423828125,
            35.87319427312898
          ],
          [
            -5.350341796875,
            35.875419840918845
          ],
          [
            -5.348796844482422,
            35.8748634548326
          ],
          [
            -5.347938537597656,
            35.87208146578945
          ],
          [
            -5.344505310058594,
            35.8713859532654
          ]
        ]
      }
    },
    {
      "type": "Feature",
      "properties": {
        "startDate": 820454400000
      },
      "geometry": {
        "type": "LineString",
        "coordinates": [
          [
            -2.951202392578125,
            35.32016766531318
          ],
          [
            -2.959442138671875,
            35.31456489612064
          ],
          [
            -2.9724884033203125,
            35.296633426438966
          ],
          [
            -2.9711151123046875,
            35.28878715881986
          ],
          [
            -2.9628753662109375,
            35.288226682029574
          ],
          [
            -2.96630859375,
            35.282621700715154
          ],
          [
            -2.9539489746093746,
            35.2730923420306
          ],
          [
            -2.9518890380859375,
            35.265243793007436
          ],
          [
            -2.93060302734375,
            35.27084997704059
          ]
        ]
      }
    },
    {
      "type": "Feature",
      "properties": {
        "startDate": 1420070400000
      },
      "geometry": {
        "type": "LineString",
        "coordinates": [
          [
            1.58203125,
            50.65294336725709
          ],
          [
            1.7907714843749998,
            50.55532498251967
          ],
          [
            2.120361328125,
            50.5064398321055
          ],
          [
            2.362060546875,
            50.55532498251967
          ],
          [
            2.65869140625,
            50.65990836093937
          ],
          [
            2.603759765625,
            50.86144411058924
          ],
          [
            2.537841796875,
            51.07591977545679
          ]
        ]
      }
    },
    {
      "type": "Feature",
      "properties": {
        "startDate": 1420070400000
      },
      "geometry": {
        "type": "LineString",
        "coordinates": [
          [
            27.5537109375,
            57.537942621165705
          ],
          [
            27.55096435546875,
            57.49368968909963
          ],
          [
            27.531738281249996,
            57.42129439209407
          ],
          [
            27.79541015625,
            57.326521225217064
          ],
          [
            27.8173828125,
            57.136239319177434
          ],
          [
            27.70751953125,
            56.83695435196053
          ],
          [
            27.9052734375,
            56.84897198026975
          ],
          [
            28.256835937499996,
            56.41390137600676
          ],
          [
            28.14697265625,
            56.218923189166624
          ]
        ]
      }
    },
    {
      "type": "Feature",
      "properties": {
        "startDate": 1483228800000
      },
      "geometry": {
        "type": "LineString",
        "coordinates": [
          [
            21.24755859375,
            55.26659815231191
          ],
          [
            21.37939453125,
            55.29162848682989
          ],
          [
            21.59912109375,
            55.19141243527063
          ],
          [
            22.03857421875,
            55.06578688659172
          ],
          [
            22.47802734375,
            55.06578688659172
          ],
          [
            22.74169921875,
            54.92714186454645
          ],
          [
            22.8515625,
            54.813348417419284
          ],
          [
            22.763671875,
            54.749990970226925
          ],
          [
            22.7197265625,
            54.61025498157912
          ],
          [
            22.7197265625,
            54.380557368630654
          ]
        ]
      }
    },
    {
      "type": "Feature",
      "properties": {
        "startDate": 1451606400000
      },
      "geometry": {
        "type": "LineString",
        "coordinates": [
          [
            27.4053955078125,
            57.657157596582984
          ],
          [
            27.4603271484375,
            57.730552143898464
          ],
          [
            27.504272460937496,
            57.710016656706465
          ],
          [
            27.5537109375,
            57.745213216291866
          ],
          [
            27.5152587890625,
            57.7862326105289
          ],
          [
            27.5537109375,
            57.82720544890436
          ],
          [
            27.713012695312496,
            57.83890342754204
          ],
          [
            27.828369140625,
            57.885657378262394
          ],
          [
            27.6910400390625,
            57.9148477670092
          ],
          [
            27.66357421875,
            58.01100794978296
          ]
        ]
      }
    },
    {
      "type": "Feature",
      "properties": {
        "startDate": 1451606400000
      },
      "geometry": {
        "type": "LineString",
        "coordinates": [
          [
            27.7569580078125,
            58.98682141966273
          ],
          [
            27.745971679687496,
            59.03772864543117
          ],
          [
            27.806396484374996,
            59.1393173344809
          ],
          [
            27.8997802734375,
            59.178742850970224
          ],
          [
            27.927246093749996,
            59.24622380205536
          ],
          [
            28.0426025390625,
            59.28833169203345
          ],
          [
            28.1414794921875,
            59.293942145266506
          ],
          [
            28.223876953125,
            59.383583679536315
          ],
          [
            28.1414794921875,
            59.41993301322722
          ],
          [
            28.05908203125,
            59.46740794183739
          ]
        ]
      }
    }
  ]
}