[
    {
      "name": "GREECE/TURKEY",
      "type": "terrestre",
      "frontex": "no aplica",
      "startDate": 2012,
      "endDate": 2012,
      "frontierCountries": "",
      "latitude": 41.25577280382813,
      "longitude": 26.326769292354584,
      "FIELD9": "GREECE/TURKEY",
      "description": "Built by Greece to separate Greece from Turkey",
      "frontierSize": "206km/12km width x 4m height",
      "construction": "Immigration",
      "geoInfo": "National",
      "1": "no",
      "2": "si",
      "3": "no",
      "4": "si",
      "5": "no",
      "6": "si",
      "7": "no",
      "8": "no",
      "9": "si",
      "10": "no",
      "11": "no",
      "12": "si",
      "13": "no",
      "14": "si",
      "15": "no"
    },
    {
      "name": "BULGARIA/TURKEY",
      "type": "terrestre",
      "frontex": "no aplica",
      "startDate": 2013,
      "endDate": 2014,
      "frontierCountries": "",
      "latitude": 42.03775153608114,
      "longitude": 26.982159018516537,
      "FIELD9": "",
      "description": "Built by Bulgaria  to separate Bulgaria from Turkey ",
      "frontierSize": "260 Km of borders  201 km width x 3m height (wall)",
      "construction": "Immigration",
      "geoInfo": "National",
      "1": "",
      "2": "si",
      "3": "no",
      "4": "si",
      "5": "si",
      "6": "si",
      "7": "no",
      "8": "no",
      "9": "no",
      "10": "si",
      "11": "no",
      "12": "no",
      "13": "si",
      "14": "no",
      "15": "no"
    },
    {
      "name": "HUNGARY/CROATIA",
      "type": "terrestre",
      "frontex": "no aplica",
      "startDate": 2015,
      "endDate": 2015,
      "frontierCountries": "",
      "latitude": 45.93739274818919,
      "longitude": 17.56186008453369,
      "FIELD9": "",
      "description": "Built by Hungary  to separate Hungary from Croatia ",
      "frontierSize": "329 Km of borders: 300km width (wall)",
      "construction": "Immigration",
      "geoInfo": "National, Schengen Area entry",
      "1": "no",
      "2": "no",
      "3": "si",
      "4": "si",
      "5": "si",
      "6": "si",
      "7": "no",
      "8": "no",
      "9": "no",
      "10": "si",
      "11": "no",
      "12": "no",
      "13": "no",
      "14": "no",
      "15": "no"
    },
    {
      "name": "HUNGARY/SERBIA",
      "type": "terrestre",
      "frontex": "no aplica",
      "startDate": 2015,
      "endDate": 2015,
      "frontierCountries": "",
      "latitude": 46.17418808415687,
      "longitude": 19.55993413925171,
      "FIELD9": "",
      "description": "Built by Hungary  to separate Hungary from Serbia ",
      "frontierSize": "151 Km of borders: 151km width x 4m hight x 15m underground (wall)",
      "construction": "Immigration",
      "geoInfo": "National, external borders with the EU, Shengen Area entry",
      "1": "no",
      "2": "si",
      "3": "si",
      "4": "si",
      "5": "si",
      "6": "si",
      "7": "no",
      "8": "no",
      "9": "no",
      "10": "si",
      "11": "no",
      "12": "no",
      "13": "no",
      "14": "no",
      "15": "no"
    },
    {
      "name": "NORTH MACEDONIA/GREECE",
      "type": "terrestre",
      "frontex": "no aplica",
      "startDate": 2015,
      "endDate": 2015,
      "frontierCountries": "",
      "latitude": 41.01996688191192,
      "longitude": 21.86303436756134,
      "FIELD9": "",
      "description": "Built by North Macedonia  to separate Hungary from Greece ",
      "frontierSize": "246 Km of borders 33km width x 2.5m height (wall)",
      "construction": "Immigration",
      "geoInfo": "National",
      "1": "no",
      "2": "si",
      "3": "no",
      "4": "si",
      "5": "no",
      "6": "si",
      "7": "no",
      "8": "no",
      "9": "no",
      "10": "no",
      "11": "no",
      "12": "no",
      "13": "no",
      "14": "no",
      "15": "no"
    },
    {
      "name": "AUSTRIA/SLOVENIA",
      "type": "terrestre",
      "frontex": "no aplica",
      "startDate": 2015,
      "endDate": 2016,
      "frontierCountries": "",
      "latitude": 46.65000694168104,
      "longitude": 15.128565430641173,
      "FIELD9": "",
      "description": "Built by Austria  to separate Austria from Slovenia",
      "frontierSize": "330 Km of borders 3,7km width x 2m height (wall)",
      "construction": "Immigration",
      "geoInfo": "National",
      "1": "no",
      "2": "no",
      "3": "no",
      "4": "si",
      "5": "no",
      "6": "n",
      "7": "no",
      "8": "no",
      "9": "no",
      "10": "no",
      "11": "no",
      "12": "no",
      "13": "no",
      "14": "no",
      "15": "no"
    },
    {
      "name": "SLOVENIA/CROATIA",
      "type": "terrestre",
      "frontex": "no aplica",
      "startDate": 2015,
      "endDate": 2015,
      "frontierCountries": "",
      "latitude": 45.497607157056066,
      "longitude": 14.984340369701387,
      "FIELD9": "",
      "description": "Built by Slovenia  to separate Slovenia from Croatia",
      "frontierSize": "670 Km of borders 200km width (wall)",
      "construction": "Immigration",
      "geoInfo": "National, Schengen area entry",
      "1": "no",
      "2": "no",
      "3": "no",
      "4": "si",
      "5": "si",
      "6": "si",
      "7": "no",
      "8": "no",
      "9": "no",
      "10": "no",
      "11": "no",
      "12": "no",
      "13": "no",
      "14": "no",
      "15": "no"
    },
    {
      "name": "SPAIN/MOROCCO CEUTA",
      "type": "terrestre",
      "frontex": "no aplica",
      "startDate": 1993,
      "endDate": 2005,
      "frontierCountries": "",
      "latitude": 35.844757,
      "longitude": -5.413570,
      "FIELD9": "",
      "description": "Built by Spain  to separate Spain from Morocco",
      "frontierSize": "6,3Km of borders 8,3km width x 6 m height (wall)",
      "construction": "Immigration",
      "geoInfo": "National, European Union - Africa, EU entry, Schengen entry",
      "1": "no",
      "2": "si",
      "3": "no",
      "4": "no",
      "5": "no",
      "6": "no",
      "7": "no",
      "8": "no",
      "9": "si",
      "10": "si",
      "11": "no",
      "12": "si",
      "13": "si",
      "14": "no",
      "15": "no"
    },
    {
      "name": "SPAIN/MOROCCO MELILLA",
      "type": "terrestre",
      "frontex": "no aplica",
      "startDate": 1996,
      "endDate": 2007,
      "frontierCountries": "",
      "latitude": 35.156295,
      "longitude": -3.049514,
      "FIELD9": "",
      "description": "Built by Spain  to separate Spain from Morocco",
      "frontierSize": "9,6 Km of borders 10km width x 6m height (wall)",
      "construction": "Immigration",
      "geoInfo": "National, European Union - Africa, EU entry, Schengen entry",
      "1": "no",
      "2": "si",
      "3": "no",
      "4": "si",
      "5": "no",
      "6": "no",
      "7": "no",
      "8": "no",
      "9": "si",
      "10": "no",
      "11": "no",
      "12": "si",
      "13": "si",
      "14": "no",
      "15": "si"
    },
    {
      "name": "UK/FRANCE",
      "type": "terrestre",
      "frontex": "no aplica",
      "startDate": 2015,
      "endDate": 2015,
      "frontierCountries": "",
      "latitude": 50.813744723209524,
      "longitude": 2.63946533203125,
      "FIELD9": "",
      "description": "Built by the UK  to separate the Port of Calais (Coquelles) from the rest of the port",
      "frontierSize": "44.6km of wall on each side of the road x 2m height",
      "construction": "Immigration",
      "geoInfo": "Cut access to the English Channel",
      "1": "si",
      "2": "no",
      "3": "no",
      "4": "si",
      "5": "no",
      "6": "si",
      "7": "si",
      "8": "no",
      "9": "no",
      "10": "no",
      "11": "si",
      "12": "no",
      "13": "no",
      "14": "no",
      "15": "no"
    },
    {
      "name": "NORWAY/RUSSIA",
      "type": "terrestre",
      "frontex": "no aplica",
      "startDate": 2016,
      "endDate": 2016,
      "frontierCountries": "",
      "latitude": 69.54042974109012,
      "longitude": 30.515964031219482,
      "FIELD9": "",
      "description": "Built by Norway  to separate Norway from Russia",
      "frontierSize": "196 Km of borders 200m width x 4 m height (wall)",
      "construction": "Safety, immigration",
      "geoInfo": "EU-Russia NATO-Russia, external frontiers of the EU, Schengen Area entry",
      "1": "no",
      "2": "si",
      "3": "no",
      "4": "no",
      "5": "no",
      "6": "no",
      "7": "no",
      "8": "no",
      "9": "si",
      "10": "no",
      "11": "no",
      "12": "no",
      "13": "no",
      "14": "no",
      "15": "no"
    },
    {
      "name": "LATVIA/RUSSIA",
      "type": "terrestre",
      "frontex": "no aplica",
      "startDate": 2015,
      "endDate": 2017,
      "frontierCountries": "",
      "latitude": 56.97924664191831,
      "longitude": 27.755442559719086,
      "FIELD9": "",
      "description": "Built by Latvia  to separate Latvia from Russia",
      "frontierSize": "276 Km of borders 23km width (90 km planned by 2019)  x 2m of wall",
      "construction": "Safety, territorial tension, immigration, smuggling",
      "geoInfo": "EU-Russia NATO-Russia, external frontiers of the EU, Schengen Area entry",
      "1": "no",
      "2": "si",
      "3": "no",
      "4": "no",
      "5": "no",
      "6": "si",
      "7": "no",
      "8": "no",
      "9": "si",
      "10": "no",
      "11": "no",
      "12": "no",
      "13": "no",
      "14": "no",
      "15": "no"
    },
    {
      "name": "ESTONIA/RUSSIA",
      "type": "terrestre",
      "frontex": "no aplica",
      "startDate": 2016,
      "endDate": 2018,
      "frontierCountries": "",
      "latitude": 59.129718092164275,
      "longitude": 27.808697819709774,
      "FIELD9": "",
      "description": "Built by Estonia  to separate Estonia from Russia",
      "frontierSize": "294 Km of borders 1,6km width x 2,5m height (wall)",
      "construction": "Safety, territorial tension, immigration, smuggling",
      "geoInfo": "EU-Russia NATO-Russia, external borders of the EU, Schengen Area entry",
      "1": "no",
      "2": "no",
      "3": "no",
      "4": "si",
      "5": "no",
      "6": "no",
      "7": "no",
      "8": "no",
      "9": "no",
      "10": "no",
      "11": "no",
      "12": "si",
      "13": "no",
      "14": "si",
      "15": "no"
    },
    {
      "name": "LITHUANIA/RUSSIA",
      "type": "terrestre",
      "frontex": "no aplica",
      "startDate": 2017,
      "endDate": 2017,
      "frontierCountries": "",
      "latitude": 55.014037228673175,
      "longitude": 22.60290563106537,
      "FIELD9": "",
      "description": "Built by Lithuania  to separate Lithuania from Russia",
      "frontierSize": "227 Km of borders 1,6km width x 2,5m height (wall)",
      "construction": "Safety, territorial tension, immigration",
      "geoInfo": "EU-Russia NATO-Russia, external borders of the EU, Schengen Area entry",
      "1": "no",
      "2": "nsi",
      "3": "no",
      "4": "no",
      "5": "no",
      "6": "no",
      "7": "no",
      "8": "no",
      "9": "si",
      "10": "no",
      "11": "no",
      "12": "no",
      "13": "no",
      "14": "no",
      "15": "no"
    }
   ]