{
    "1990" : "Se aprueba la Schengen Implementing Convention (SIC)",
    "1999" : "Se aprueba el SIVE, un sistema operativo integrado de la Guardia Civil Española que servirá como modelo de EUROSUR",
    "2001" : "Ataques del 11 de setiembre",
    "2003" : "Se establece la Política Común de Seguridad y Defensa (PCSD)",
    "2006" : "Se establece el Schengen Borders Code",
    "2012" : "Se dispara la construcción masiva de muros por parte de los países de la U.E ",
    "2014" : "Aumento significativo de controles internos del espacio Schengen",
    "2016" : "Se aprueba la implementación del Plan on Security and Defence. Última estrategia de seguridad común llamada Una visión común, una actuación conjunta: Una Europa más fuerte"
}