year,country,text
1985,"Germany, France, Belgium, Luxemburg and the Netherlands",Sign the Schengen Agreement but it doesn't come into effect before 1995
1990,Italy,Sign the Schengen Agreement and it comes into effect in 1997
1991,Portugal and Spain ,Sign the Schengen Agreement but it doesn't enter into force before 1995
1992,Greece,Sign the Schengen Agreement but it takes effect in 2000
1995,Austria ,Sign the Schengen Agreement and it comes into force in 1997
1996,"Denmark, Finland and Sweden",Sign the Schengen Agreement but it doesn't take effect before 2001
1999,Iceland and Norway,"After the UE law is incorporated into the Treaty of Amsterdam, they sign the Schengen Agreement again, which will replace the first one signed in 1996 and that will take effect in 2001"
2003,"Czech Republic, Estonia, Hungary, Latvia, Lithuania, Malta, Poland, Slovakia and Slovenia",Sign the Schengen Agreement but it doesn't come into force before 2007
2004,Switzerland (non EU Member),Sign the Schengen Agreement but it doesn't take effect before 2008
2008,Liechtenstein,Sign the Schengen Agreement which will come into force in 2001

