name,type,frontex,startDate,endDate,frontierCountries,latitude,longitude,,description,frontierSize,construction,geoInfo,1,2,3,4,5,6,7,8,9,10,11,12,13,14,15
GREECE/TURKEY,terrestre,no aplica,2012,2012,,41,25,GREECE/TURKEY,Built by Greece to separate Greece from Turkey,206km/12km width x 4m height,Immigration,National,no,si,no,si,no,si,no,no,si,no,no,si,no,si,no
BULGARIA/TURKEY,terrestre,no aplica,2013,2014,2017,42,27,,Built by Bulgaria  to separate Bulgaria from Turkey ,260 Km of borders  201 km width x 3m height (wall),Immigration,National,,si,no,si,si,si,no,no,no,si,no,no,si,no,no
HUNGARY/CROATIA,terrestre,no aplica,2015,2015,,47,18,,Built by Hungary  to separate Hungary from Croatia ,329 Km of borders: 300km width (wall),Immigration,"National, Schengen Area entry",no,no,si,si,si,si,no,no,no,si,no,no,no,no,no
HUNGARY/SERBIA,terrestre,no aplica,2015,2015,2017,45.642172,19.638048,,Built by Hungary  to separate Hungary from Serbia ,151 Km of borders: 151km width x 4m hight x 15m underground (wall),Immigration,"National, external borders with the EU, Shengen Area entry",no,si,si,si,si,si,no,no,no,si,no,no,no,no,no
NORTH MACEDONIA/GREECE,terrestre,no aplica,2015,2015,,41,21,,Built by North Macedonia  to separate Hungary from Greece ,246 Km of borders 33km width x 2.5m height (wall),Immigration,National,no,si,no,si,no,si,no,no,no,no,no,no,no,no,no
AUSTRIA/SLOVENIA,terrestre,no aplica,2015,2016,,47,14.673854,,Built by Austria  to separate Austria from Slovenia,"330 Km of borders 3,7km width x 2m height (wall)",Immigration,National,no,no,no,si,no,n,no,no,no,no,no,no,no,no,no
SLOVENIA/CROATIA,terrestre,no aplica,2015,2015,,45,15,,Built by Slovenia  to separate Slovenia from Croatia,670 Km of borders 200km width (wall),Immigration,"National, Schengen area entry",no,no,no,si,si,si,no,no,no,no,no,no,no,no,no
SPAIN/MOROCCOCEUTA,terrestre,no aplica,1993,2005,,36,-5,,Built by Spain  to separate Spain from Morocco,"6,3Km of borders 8,3km width x 6 m height (wall)",Immigration,"National, European Union - Africa, EU entry, Schengen entry",no,si,no,no,no,no,no,no,si,si,no,si,si,no,no
SPAIN/MOROCCO MELILLA,terrestre,no aplica,1997,2007,,35,-3,,Built by Spain  to separate Spain from Morocco,"9,6 Km of borders 10km width x 6m height (wall)",Immigration,"National, European Union - Africa, EU entry, Schengen entry",no,si,no,si,no,no,no,no,si,no,no,si,si,no,si
UK/FRANCE,terrestre,no aplica,2015,2015,2016,51,2,,Built by the UK  to separate the Port of Calais (Coquelles) from the rest of the port,1km of wall on each side of the road x 4m height,Immigration,Cut access to the English Channel,si,no,no,si,no,si,si,si,no,no,si,no,no,no,no
NORWAY/RUSSIA,terrestre,no aplica,2016,2016,,70,30,,Built by Norway  to separate Norway from Russia,196 Km of borders 200m width x 4 m height (wall),"Safety, immigration","EU-Russia NATO-Russia, external frontiers of the EU, Schengen Area entry",no,si,no,no,no,no,no,no,si,no,no,no,no,no,no
LATVIA/RUSSIA,terrestre,no aplica,2015,2017,2019,57,27,,Built by Latvia  to separate Latvia from Russia,276 Km of borders 23km width (90 km planned by 2019)  x 2m of wall,"Safety, territorial tension, immigration, smuggling","EU-Russia NATO-Russia, external frontiers of the EU, Schengen Area entry",no,si,no,no,no,si,no,no,si,no,no,no,no,no,no
ESTONIA/RUSSIA,terrestre,no aplica,2016/17-2018,2018,2019,58.747687,26.932322,,Built by Estonia  to separate Estonia from Russia,"294 Km of borders 1,6km width x 2,5m height (wall)","Safety, territorial tension, immigration, smuggling","EU-Russia NATO-Russia, external borders of the EU, Schengen Area entry",no,no,no,si,no,no,no,no,no,no,no,si,no,si,no
LITHUANIA/RUSSIA,terrestre,no aplica,2017,2017,,55.141524,22.581674,,Built by Lithuania  to separate Lithuania from Russia,"227 Km of borders 1,6km width x 2,5m height (wall)","Safety, territorial tension, immigration","EU-Russia NATO-Russia, external borders of the EU, Schengen Area entry",no,nsi,no,no,no,no,no,no,si,no,no,no,no,no,no
