name,punt.tipus,internalDate,description1,description2,year
Sistema de control de documents d’ identitat (EURODAC),Virtuals,Introduït l'any 1993 ,Banc d’empremtes dactilars i altres dades biomètriques,Identifica als demandants d’asil i persones interceptades sense documentació ,1993
Sistema d’ Informació de Visats (VIS),Virtuals,Aprovat l'any 2008,Base de dades i altres dades biomètriques,"Registra les peticiones de visat per entrar a la zona Schengen, per decidir si acceptar-les o denegar-les",2008
Sistema d’ Informació de Schengen (SIS II),Virtuals,S’ implementa el 2013,"Sistema d’informació a gran escala, inclou empremtes dactilars i altres dades biomètriques",Controla l’accés a l’espai Schengen via l'emmagatzemat  d’alertes de les persones que volen entrar,2013
Sistema d'Entrades i Sortides (SES),Virtuals,Proposat el 2013,Substitueix el segell del passaport i recopila dades biomètriques: empremtes dactilars i registres facials,"Controla el moment i lloc d’entrada de les persones nacionals i de tercers països, verificant que es compleixi  la duració de les estades",2013
Registre de viatgers (PRV),Virtuals,Proposat l'any 2013,Sistema centralitzat basat en dades biomètriques,"Permet que les persones de tercers països que viatgen freqüentment dins de la Unió Europea se’ls faciliti el control de moviment, després d’un filtratge previ basat en els  seus antecedents.",2013
Sistema europeu d’Informació i Autorització de Viatges (SEIAV),Virtuals,S’aprova el 2017 ,Sistema electrònic  ,"Autoritza i realitza el seguiment dels visitants de països que no necessiten un visat per accedir a l’espai Schengen, assegurant-se que aquestes persones no suposin un risc per la seguretat.",2017
Documents de Viatge Perduts o Robats o Sistema I-Chekit (DVPR),Virtuals,Es crea l'any 2012,Sistema de base de dades de l'INTERPOL ,"Detecta documents robats o perduts per millorar la seguretat aèria, involucra a aerolínies, a la indústria marítima i a agents de seguretat fronterera",2002
Sistema Europeu de Vigilància de Fronteres (EUROSUR),Virtuals,S'inaugura l'any 2013,Programa de control i vigilància integral compartit en temps real entre els estats de la UE i Frontex,"Detecta, preveu i combat la immigració irregular i la delinqüència transfronterera",2013
